{
  "project_info": {
    "project_number": "372855402155",
    "project_id": "projeto-wmb",
    "storage_bucket": "projeto-wmb.appspot.com"
  },
  "client": [
    {
      "client_info": {
        "mobilesdk_app_id": "1:372855402155:android:9458f011a3e3a6d5f511ee",
        "android_client_info": {
          "package_name": "com.example.project_wmb"
        }
      },
      "oauth_client": [
        {
          "client_id": "372855402155-1nojd5m5num6ojmp1kgbjvr5ke75rm9h.apps.googleusercontent.com",
          "client_type": 3
        }
      ],
      "api_key": [
        {
          "current_key": "AIzaSyB9ptn7MKqztf4JBg2lSzKqKPhUjgtwehc"
        }
      ],
      "services": {
        "appinvite_service": {
          "other_platform_oauth_client": [
            {
              "client_id": "372855402155-1nojd5m5num6ojmp1kgbjvr5ke75rm9h.apps.googleusercontent.com",
              "client_type": 3
            }
          ]
        }
      }
    }
  ],
  "configuration_version": "1"
}